710764 354343 509
2 1 2
12 12000 268
1 1 1
80000 80000 33
342925 227095 443
999999 1 525
745395 566184 509
823917 849715 525
25 25 24
742841 575437 509
399177 372194 436
302011 161369 443
648094 998420 525
809242 1181 509
216217 839107 525
821836 851329 525
186184 660838 509
391821 297804 441
641329 517398 509
741042 211595 509
866172 843376 419
999514 264880 525
252069 792586 509
228136 476524 449
665354 562763 509
174685 962394 525
355381 837217 509
120868 782704 509
5749 408222 443
835192 73514 509
351683 781723 509
260256 18220 443
360912 692773 509
767844 834204 468
106411 866401 525
570315 304469 470
979519 922395 507
460283 459931 307
220345 998414 525
982726 51605 525
530286 838629 525
231570 493298 449
98554 405310 443
538254 994401 525
120020 38378 354
889082 144650 525
306441 502253 449
186757 849419 525
839919 412671 525
859095 37916 525
365966 73835 443
688221 850453 525
234357 106293 443
481639 273083 449
467857 976345 525
266315 738486 509
550620 143930 470
640166 883903 525
567308 236997 470
450363 238501 449
133513 565797 470
290754 484978 449
131186 516973 470
758178 14177 509
954315 80377 525
309648 798242 509
813175 837981 525
187795 246229 443
364045 451038 449
579922 296206 470
207062 859114 525
816577 98389 509
372933 730813 509
866228 117726 525
955457 656135 525
700972 370318 509
947292 880520 507
796904 318856 509
767354 829900 468
944216 860263 507
795641 428739 509
141468 16821 354
401678 749844 509
363582 194520 443
676533 166911 509
982444 106636 525
346237 792647 509
399005 698310 509
44366 41583 288
281696 208821 443
532489 778114 509
505281 342051 449
86250 241427 443
752075 990511 525
964246 760305 525
856423 533811 525
893269 381501 525
354827 973931 525
100959 699267 509
784843 698417 504
891475 298172 525
386833 480161 449
934375 88493 525
757518 331238 509
320095 944761 525
974549 58177 525
442741 192841 449
39925 901609 525
668916 84937 509
690344 461632 509
418495 740986 509
436145 125163 449
46188 349807 443
612316 735549 509
819429 136599 509
813474 676791 504
442639 456165 387
260762 589572 470
534723 159414 470
627679 310201 509
23466 182358 383
745578 484076 509
167021 732807 509
746712 970485 525
517235 537304 439
452116 992220 525
216212 385368 443
202582 86246 383
275567 236264 407
784690 501305 509
455674 617893 470
860812 521347 525
746763 530312 509
402599 327887 441
975159 541949 525
663307 247784 509
932289 76753 525
511640 284935 449
917838 500527 525
969253 848750 507
335598 237389 407
962077 251687 525
25985 822556 509
659356 55358 509
869331 982523 507
142363 890894 525
417876 65870 449
221903 534860 470
992666 184601 525
450052 15781 449
206119 885230 525
839476 699215 525
996561 341390 525
909807 2963 525
29741 175924 383
637794 130578 509
865292 680674 525
172927 56947 383
571791 455126 470
673273 65429 509
183620 342680 443
699906 619980 509
156538 524347 470
229671 117967 386
199464 398091 443
589050 279020 470
868329 307779 525
949635 229317 525
397714 256330 441
546038 633653 509
928248 257285 525
496851 990752 525
673698 714047 504
4444 908829 525
167512 131814 383
825879 189388 509
774599 622691 509
467314 201282 449
579684 237567 470
815665 594995 509
191562 425099 449
165851 901928 525
831444 279594 509
176971 526330 470
361402 888470 525
418700 990851 525
493935 827982 509
895194 416368 525
688233 257042 509
669372 173357 509
200734 62495 383
927526 66361 525
734 763874 509
471477 969773 525
703976 557807 509
340256 172667 443
761395 795786 468
125036 110128 349
889546 754456 525
509203 956239 525
316234 534704 470
325804 383308 441
172793 940367 525
365472 788715 509
323131 15020 443
909601 781771 525
373875 362809 392
489780 543184 470
293121 256661 407
688530 857160 525
215434 446348 449
886943 378739 525
202453 9707 383
283580 711705 509
215331 639100 509
478505 915718 525
465582 837104 509
952189 158753 525
176752 311467 443
278242 841771 525
860552 438995 525
255179 682571 509
453708 524583 470
145040 229967 386
436847 253293 449
643765 948066 525
16330 912995 525
954050 44095 525
717359 278503 509
883365 494417 525
675683 938132 525
414230 919300 525
189819 549951 470
297495 61453 443
828608 947147 525
877968 73446 525
685089 261585 509
801730 715964 468
153173 753557 509
66623 14859 340
195752 639179 509
530598 90824 470
225289 27451 386
60854 95071 351
221665 218046 355
707107 797818 468
508557 687191 509
672759 304530 509
652154 896002 525
